02/alu.vcd
$date
	Fri Apr 13 03:45:57 2018
$end
$version
	Icarus Verilog
$end
$timescale
	1s
$end
$scope module alutest $end
$var wire 8 ! O0 [7:0] $end
$var reg 8 " A [7:0] $end
$var reg 8 # B [7:0] $end
$var reg 4 $ C [3:0] $end
$var reg 4 % CC [3:0] $end
$var reg 4 & CTR [3:0] $end
$var reg 8 ' INA [7:0] $end
$var reg 8 ( INB [7:0] $end
$var reg 8 ) O [7:0] $end
$var reg 8 * OUT [7:0] $end
$var reg 1 + ck $end
$scope module ALU $end
$var wire 8 , A [7:0] $end
$var wire 8 - B [7:0] $end
$var wire 4 . CTR [3:0] $end
$var wire 8 / OUT [7:0] $end
$var wire 1 0 ck $end
$var reg 4 1 C [3:0] $end
$var reg 8 2 INA [7:0] $end
$var reg 8 3 INB [7:0] $end
$var reg 8 4 O [7:0] $end
$upscope $end
$upscope $end
$enddefinitions $end
#0
$dumpvars
bx 4
bx 3
bx 2
bx 1
00
bx /
bx .
bx -
bx ,
0+
bx *
bx )
bx (
bx '
bx &
bx %
bx $
bx #
bx "
bx !
$end
#10
1+
10
#20
b1001 &
b1001 .
b10000001 #
b10000001 -
b100100 "
b100100 ,
0+
00
#30
b10100101 *
b10100101 /
b10000001 (
b100100 '
b1001 $
b1001 1
b10000001 3
b100100 2
1+
10
#40
b1101 &
b1101 .
b1101 #
b1101 -
b1100011 "
b1100011 ,
0+
00
#50
b11000110 *
b11000110 /
b10100101 4
b10100101 !
b1101 1
b1101 3
b1100011 2
b10100101 )
b1101 (
b1100011 '
b1001 %
b1101 $
1+
10
#60
b1 &
b1 .
b10010 #
b10010 -
b1100101 "
b1100101 ,
0+
00
#70
b1010011 *
b1010011 /
b11000110 )
b10010 (
b1100101 '
b1101 %
b1 $
b11000110 4
b11000110 !
b1 1
b10010 3
b1100101 2
1+
10
#80
b1101 &
b1101 .
b1110110 #
b1110110 -
b1101 "
b1101 ,
0+
00
#90
b11010 *
b11010 /
b1010011 4
b1010011 !
b1101 1
b1110110 3
b1101 2
b1010011 )
b1110110 (
b1101 '
b1 %
b1101 $
1+
10
#100
b1001 &
b1001 .
b10001100 #
b10001100 -
b11101101 "
b11101101 ,
0+
00
#110
b11101101 *
b11101101 /
b11010 )
b10001100 (
b11101101 '
b1101 %
b1001 $
b11010 4
b11010 !
b1001 1
b10001100 3
b11101101 2
1+
10
#120
b1010 &
b1010 .
b11000101 #
b11000101 -
b11000110 "
b11000110 ,
0+
00
#130
b11 *
b11 /
b11101101 4
b11101101 !
b1010 1
b11000101 3
b11000110 2
b11101101 )
b11000101 (
b11000110 '
b1001 %
b1010 $
1+
10
#140
b10 &
b10 .
b1110111 #
b1110111 -
b11100101 "
b11100101 ,
0+
00
#150
b0 /
b11 )
b1110111 (
b11100101 '
b1010 %
b10 $
b11 4
b11 !
b10 1
b1110111 3
b11100101 2
1+
10
#160
b1110 &
b1110 .
b11110010 #
b11110010 -
b10001111 "
b10001111 ,
0+
00
#170
b11000111 *
b11000111 /
b0 4
b0 !
b1110 1
b11110010 3
b10001111 2
b11110010 (
b10001111 '
b10 %
b1110 $
1+
10
#180
b1100 &
b1100 .
b11000101 #
b11000101 -
b11101000 "
b11101000 ,
0+
00
#190
b1110100 *
b1110100 /
b11000111 )
b11000101 (
b11101000 '
b1110 %
b1100 $
b11000111 4
b11000111 !
b1100 1
b11000101 3
b11101000 2
1+
10
#200
b101 &
b101 .
b101101 #
b101101 -
b10111101 "
b10111101 ,
0+
00
#210
b0 /
b1110100 4
b1110100 !
b101 1
b101101 3
b10111101 2
b1110100 )
b101101 (
b10111101 '
b1100 %
b101 $
1+
10
#220
b0 &
b0 .
b1010 #
b1010 -
b1100011 "
b1100011 ,
0+
00
#230
b1101101 *
b1101101 /
b1010 (
b1100011 '
b101 %
b0 $
b0 4
b0 !
b0 1
b1010 3
b1100011 2
1+
10
#240
b1101 &
b1101 .
b10101010 #
b10101010 -
b100000 "
b100000 ,
0+
00
#250
b1000000 *
b1000000 /
b1101101 4
b1101101 !
b1101 1
b10101010 3
b100000 2
b1101101 )
b10101010 (
b100000 '
b0 %
b1101 $
1+
10
#260
b10011 #
b10011 -
b10010110 "
b10010110 ,
0+
00
#270
b101100 *
b101100 /
b1000000 )
b10011 (
b10010110 '
b1101 %
b1000000 4
b1000000 !
b10011 3
b10010110 2
1+
10
#280
b101 &
b101 .
b1101011 #
b1101011 -
b1010011 "
b1010011 ,
0+
00
#290
b0 /
b101100 4
b101100 !
b101 1
b1101011 3
b1010011 2
b101100 )
b1101011 (
b1010011 '
b101 $
1+
10
#300
b1101 &
b1101 .
b10101110 #
b10101110 -
b10 "
b10 ,
0+
00
#310
b100 *
b100 /
b10101110 (
b10 '
b101 %
b1101 $
b0 4
b0 !
b1101 1
b10101110 3
b10 2
1+
10
#320
b1010 &
b1010 .
b100011 #
b100011 -
b11001111 "
b11001111 ,
0+
00
#330
b11101100 *
b11101100 /
b100 4
b100 !
b1010 1
b100011 3
b11001111 2
b100 )
b100011 (
b11001111 '
b1101 %
b1010 $
1+
10
#340
b10 &
b10 .
b111100 #
b111100 -
b11001010 "
b11001010 ,
0+
00
#350
b0 /
b11101100 )
b111100 (
b11001010 '
b1010 %
b10 $
b11101100 4
b11101100 !
b10 1
b111100 3
b11001010 2
1+
10
#360
b1000 &
b1000 .
b1000001 #
b1000001 -
b10001010 "
b10001010 ,
0+
00
#370
b0 *
b0 4
b0 !
b1000 1
b1000001 3
b10001010 2
b1000001 (
b10001010 '
b10 %
b1000 $
1+
10
#380
b1011 &
b1011 .
b10001001 #
b10001001 -
b1111000 "
b1111000 ,
0+
00
#390
b10000111 *
b0 )
b10001001 (
b1111000 '
b1000 %
b1011 $
b1011 1
b10001001 3
b1111000 2
1+
10
#400
b1110 &
b1110 .
b11000110 #
b11000110 -
b10110110 "
b10110110 ,
0+
00
#410
b1011011 *
b1011011 /
b1110 1
b11000110 3
b10110110 2
b10000111 )
b11000110 (
b10110110 '
b1011 %
b1110 $
1+
10
